<?xml version="1.0" encoding="UTF-8" standalone="no"?>
<!-- Created with Inkscape (http://www.inkscape.org/) -->

<svg
   xmlns:dc="http://purl.org/dc/elements/1.1/"
   xmlns:cc="http://creativecommons.org/ns#"
   xmlns:rdf="http://www.w3.org/1999/02/22-rdf-syntax-ns#"
   xmlns:svg="http://www.w3.org/2000/svg"
   xmlns="http://www.w3.org/2000/svg"
   xmlns:xlink="http://www.w3.org/1999/xlink"
   xmlns:sodipodi="http://sodipodi.sourceforge.net/DTD/sodipodi-0.dtd"
   xmlns:inkscape="http://www.inkscape.org/namespaces/inkscape"
   width="24.024305"
   height="24.026049"
   id="svg8703"
   version="1.1"
   inkscape:version="0.48.4 r9939"
   sodipodi:docname="modeZoom.svg">
  <defs
     id="defs8705">
    <linearGradient
       id="linearGradient5704-3">
      <stop
         style="stop-color:#5a5a5a;stop-opacity:1;"
         offset="0"
         id="stop5706-58" />
      <stop
         style="stop-color:#000000;stop-opacity:1.0000000;"
         offset="1.0000000"
         id="stop5708-9" />
    </linearGradient>
    <linearGradient
       id="linearGradient5740-4">
      <stop
         id="stop5742-3"
         offset="0.0000000"
         style="stop-color:#ffffff;stop-opacity:1.0000000;" />
      <stop
         id="stop5744-2"
         offset="1.0000000"
         style="stop-color:#98b6d3;stop-opacity:1.0000000;" />
    </linearGradient>
    <linearGradient
       id="linearGradient8663">
      <stop
         id="stop8665"
         offset="0.0000000"
         style="stop-color:#ffffff;stop-opacity:1.0000000;" />
      <stop
         id="stop8667"
         offset="1.0000000"
         style="stop-color:#98b6d3;stop-opacity:1.0000000;" />
    </linearGradient>
    <linearGradient
       id="linearGradient8670">
      <stop
         style="stop-color:#5a5a5a;stop-opacity:1;"
         offset="0"
         id="stop8672" />
      <stop
         style="stop-color:#000000;stop-opacity:1.0000000;"
         offset="1.0000000"
         id="stop8674" />
    </linearGradient>
    <linearGradient
       inkscape:collect="always"
       xlink:href="#linearGradient5740-4"
       id="linearGradient8369"
       gradientUnits="userSpaceOnUse"
       x1="108.35131"
       y1="215.4819"
       x2="101.19292"
       y2="206.99658" />
    <linearGradient
       id="linearGradient8677">
      <stop
         id="stop8679"
         offset="0.0000000"
         style="stop-color:#ffffff;stop-opacity:1.0000000;" />
      <stop
         id="stop8681"
         offset="1.0000000"
         style="stop-color:#98b6d3;stop-opacity:1.0000000;" />
    </linearGradient>
    <linearGradient
       inkscape:collect="always"
       xlink:href="#linearGradient5740-4"
       id="linearGradient8371"
       gradientUnits="userSpaceOnUse"
       x1="101.75068"
       y1="205.19197"
       x2="108.8156"
       y2="212.99005" />
    <linearGradient
       id="linearGradient8684">
      <stop
         id="stop8686"
         offset="0.0000000"
         style="stop-color:#ffffff;stop-opacity:1.0000000;" />
      <stop
         id="stop8688"
         offset="1.0000000"
         style="stop-color:#98b6d3;stop-opacity:1.0000000;" />
    </linearGradient>
    <linearGradient
       id="linearGradient5704-3-0">
      <stop
         style="stop-color:#5a5a5a;stop-opacity:1;"
         offset="0"
         id="stop5706-58-9" />
      <stop
         style="stop-color:#000000;stop-opacity:1.0000000;"
         offset="1.0000000"
         id="stop5708-9-6" />
    </linearGradient>
    <linearGradient
       id="linearGradient6684-0">
      <stop
         style="stop-color:#ffbf00;stop-opacity:1.0000000;"
         offset="0.0000000"
         id="stop6686-4" />
      <stop
         style="stop-color:#ffffff;stop-opacity:1.0000000;"
         offset="1.0000000"
         id="stop6688-5" />
    </linearGradient>
    <linearGradient
       id="linearGradient8824">
      <stop
         style="stop-color:#ffbf00;stop-opacity:1.0000000;"
         offset="0.0000000"
         id="stop8826" />
      <stop
         style="stop-color:#ffffff;stop-opacity:1.0000000;"
         offset="1.0000000"
         id="stop8828" />
    </linearGradient>
    <linearGradient
       id="linearGradient8831">
      <stop
         style="stop-color:#5a5a5a;stop-opacity:1;"
         offset="0"
         id="stop8833" />
      <stop
         style="stop-color:#000000;stop-opacity:1.0000000;"
         offset="1.0000000"
         id="stop8835" />
    </linearGradient>
    <linearGradient
       inkscape:collect="always"
       xlink:href="#linearGradient5740-4-8"
       id="linearGradient8286"
       gradientUnits="userSpaceOnUse"
       x1="108.35131"
       y1="215.4819"
       x2="101.19292"
       y2="206.99658" />
    <linearGradient
       id="linearGradient5740-4-8">
      <stop
         id="stop5742-3-5"
         offset="0.0000000"
         style="stop-color:#ffffff;stop-opacity:1.0000000;" />
      <stop
         id="stop5744-2-8"
         offset="1.0000000"
         style="stop-color:#98b6d3;stop-opacity:1.0000000;" />
    </linearGradient>
    <linearGradient
       inkscape:collect="always"
       xlink:href="#linearGradient5740-4-8"
       id="linearGradient8288"
       gradientUnits="userSpaceOnUse"
       x1="101.75068"
       y1="205.19197"
       x2="108.8156"
       y2="212.99005" />
    <linearGradient
       id="linearGradient8842">
      <stop
         id="stop8844"
         offset="0.0000000"
         style="stop-color:#ffffff;stop-opacity:1.0000000;" />
      <stop
         id="stop8846"
         offset="1.0000000"
         style="stop-color:#98b6d3;stop-opacity:1.0000000;" />
    </linearGradient>
    <linearGradient
       id="linearGradient3480-0">
      <stop
         id="stop3482-2"
         offset="0.0000000"
         style="stop-color:#646464;stop-opacity:1.0000000;" />
      <stop
         id="stop3484-8"
         offset="1.0000000"
         style="stop-color:#000000;stop-opacity:1.0000000;" />
    </linearGradient>
    <linearGradient
       id="linearGradient5740-3">
      <stop
         id="stop5742-0"
         offset="0.0000000"
         style="stop-color:#ffffff;stop-opacity:1.0000000;" />
      <stop
         id="stop5744-9"
         offset="1.0000000"
         style="stop-color:#98b6d3;stop-opacity:1.0000000;" />
    </linearGradient>
    <linearGradient
       id="linearGradient8983">
      <stop
         id="stop8985"
         offset="0.0000000"
         style="stop-color:#646464;stop-opacity:1.0000000;" />
      <stop
         id="stop8987"
         offset="1.0000000"
         style="stop-color:#000000;stop-opacity:1.0000000;" />
    </linearGradient>
    <linearGradient
       id="linearGradient8990">
      <stop
         id="stop8992"
         offset="0.0000000"
         style="stop-color:#646464;stop-opacity:1.0000000;" />
      <stop
         id="stop8994"
         offset="1.0000000"
         style="stop-color:#000000;stop-opacity:1.0000000;" />
    </linearGradient>
    <linearGradient
       id="linearGradient8997">
      <stop
         id="stop8999"
         offset="0.0000000"
         style="stop-color:#646464;stop-opacity:1.0000000;" />
      <stop
         id="stop9001"
         offset="1.0000000"
         style="stop-color:#000000;stop-opacity:1.0000000;" />
    </linearGradient>
    <linearGradient
       id="linearGradient9004">
      <stop
         id="stop9006"
         offset="0.0000000"
         style="stop-color:#646464;stop-opacity:1.0000000;" />
      <stop
         id="stop9008"
         offset="1.0000000"
         style="stop-color:#000000;stop-opacity:1.0000000;" />
    </linearGradient>
    <linearGradient
       id="linearGradient3480-0-8">
      <stop
         id="stop3482-2-0"
         offset="0.0000000"
         style="stop-color:#646464;stop-opacity:1.0000000;" />
      <stop
         id="stop3484-8-4"
         offset="1.0000000"
         style="stop-color:#000000;stop-opacity:1.0000000;" />
    </linearGradient>
    <linearGradient
       id="linearGradient9121">
      <stop
         id="stop9123"
         offset="0.0000000"
         style="stop-color:#646464;stop-opacity:1.0000000;" />
      <stop
         id="stop9125"
         offset="1.0000000"
         style="stop-color:#000000;stop-opacity:1.0000000;" />
    </linearGradient>
    <linearGradient
       id="linearGradient9128">
      <stop
         id="stop9130"
         offset="0.0000000"
         style="stop-color:#646464;stop-opacity:1.0000000;" />
      <stop
         id="stop9132"
         offset="1.0000000"
         style="stop-color:#000000;stop-opacity:1.0000000;" />
    </linearGradient>
    <linearGradient
       id="linearGradient6684-9">
      <stop
         style="stop-color:#ffbf00;stop-opacity:1.0000000;"
         offset="0.0000000"
         id="stop6686-6" />
      <stop
         style="stop-color:#ffffff;stop-opacity:1.0000000;"
         offset="1.0000000"
         id="stop6688-77" />
    </linearGradient>
    <linearGradient
       id="linearGradient9139">
      <stop
         id="stop9141"
         offset="0.0000000"
         style="stop-color:#646464;stop-opacity:1.0000000;" />
      <stop
         id="stop9143"
         offset="1.0000000"
         style="stop-color:#000000;stop-opacity:1.0000000;" />
    </linearGradient>
    <linearGradient
       inkscape:collect="always"
       xlink:href="#linearGradient3480-0-8"
       id="linearGradient8530"
       gradientUnits="userSpaceOnUse"
       gradientTransform="matrix(1.592997,0,0,1,344.0049,269.21353)"
       x1="-37.500759"
       y1="181.99083"
       x2="-29.000008"
       y2="181.99083" />
    <linearGradient
       id="linearGradient9146">
      <stop
         id="stop9148"
         offset="0.0000000"
         style="stop-color:#646464;stop-opacity:1.0000000;" />
      <stop
         id="stop9150"
         offset="1.0000000"
         style="stop-color:#000000;stop-opacity:1.0000000;" />
    </linearGradient>
    <linearGradient
       id="linearGradient3480-0-4">
      <stop
         id="stop3482-2-5"
         offset="0.0000000"
         style="stop-color:#646464;stop-opacity:1.0000000;" />
      <stop
         id="stop3484-8-44"
         offset="1.0000000"
         style="stop-color:#000000;stop-opacity:1.0000000;" />
    </linearGradient>
    <linearGradient
       id="linearGradient9267">
      <stop
         id="stop9269"
         offset="0.0000000"
         style="stop-color:#646464;stop-opacity:1.0000000;" />
      <stop
         id="stop9271"
         offset="1.0000000"
         style="stop-color:#000000;stop-opacity:1.0000000;" />
    </linearGradient>
    <linearGradient
       id="linearGradient9274">
      <stop
         id="stop9276"
         offset="0.0000000"
         style="stop-color:#646464;stop-opacity:1.0000000;" />
      <stop
         id="stop9278"
         offset="1.0000000"
         style="stop-color:#000000;stop-opacity:1.0000000;" />
    </linearGradient>
    <linearGradient
       id="linearGradient9281">
      <stop
         id="stop9283"
         offset="0.0000000"
         style="stop-color:#646464;stop-opacity:1.0000000;" />
      <stop
         id="stop9285"
         offset="1.0000000"
         style="stop-color:#000000;stop-opacity:1.0000000;" />
    </linearGradient>
    <linearGradient
       inkscape:collect="always"
       xlink:href="#linearGradient5740-3-5"
       id="linearGradient8484"
       gradientUnits="userSpaceOnUse"
       gradientTransform="matrix(1,0,0,0.957993,326.27709,296.75006)"
       x1="-48.429123"
       y1="179.49295"
       x2="-27.038502"
       y2="179.49295" />
    <linearGradient
       id="linearGradient5740-3-5">
      <stop
         id="stop5742-0-3"
         offset="0.0000000"
         style="stop-color:#ffffff;stop-opacity:1.0000000;" />
      <stop
         id="stop5744-9-1"
         offset="1.0000000"
         style="stop-color:#98b6d3;stop-opacity:1.0000000;" />
    </linearGradient>
    <linearGradient
       inkscape:collect="always"
       xlink:href="#linearGradient3480-0-4"
       id="linearGradient8486"
       gradientUnits="userSpaceOnUse"
       gradientTransform="matrix(1,0,0,0.963346,326.27709,295.75335)"
       x1="-44.36454"
       y1="181.54939"
       x2="-29.63546"
       y2="181.64502" />
    <linearGradient
       id="linearGradient9292">
      <stop
         id="stop9294"
         offset="0.0000000"
         style="stop-color:#646464;stop-opacity:1.0000000;" />
      <stop
         id="stop9296"
         offset="1.0000000"
         style="stop-color:#000000;stop-opacity:1.0000000;" />
    </linearGradient>
    <linearGradient
       id="linearGradient3480-0-9">
      <stop
         id="stop3482-2-00"
         offset="0.0000000"
         style="stop-color:#646464;stop-opacity:1.0000000;" />
      <stop
         id="stop3484-8-47"
         offset="1.0000000"
         style="stop-color:#000000;stop-opacity:1.0000000;" />
    </linearGradient>
    <linearGradient
       id="linearGradient9417">
      <stop
         id="stop9419"
         offset="0.0000000"
         style="stop-color:#646464;stop-opacity:1.0000000;" />
      <stop
         id="stop9421"
         offset="1.0000000"
         style="stop-color:#000000;stop-opacity:1.0000000;" />
    </linearGradient>
    <linearGradient
       id="linearGradient9424">
      <stop
         id="stop9426"
         offset="0.0000000"
         style="stop-color:#646464;stop-opacity:1.0000000;" />
      <stop
         id="stop9428"
         offset="1.0000000"
         style="stop-color:#000000;stop-opacity:1.0000000;" />
    </linearGradient>
    <linearGradient
       id="linearGradient9431">
      <stop
         id="stop9433"
         offset="0.0000000"
         style="stop-color:#646464;stop-opacity:1.0000000;" />
      <stop
         id="stop9435"
         offset="1.0000000"
         style="stop-color:#000000;stop-opacity:1.0000000;" />
    </linearGradient>
    <linearGradient
       id="linearGradient6684-9-0">
      <stop
         style="stop-color:#ffbf00;stop-opacity:1.0000000;"
         offset="0.0000000"
         id="stop6686-6-5" />
      <stop
         style="stop-color:#ffffff;stop-opacity:1.0000000;"
         offset="1.0000000"
         id="stop6688-77-2" />
    </linearGradient>
    <linearGradient
       id="linearGradient9442">
      <stop
         id="stop9444"
         offset="0.0000000"
         style="stop-color:#646464;stop-opacity:1.0000000;" />
      <stop
         id="stop9446"
         offset="1.0000000"
         style="stop-color:#000000;stop-opacity:1.0000000;" />
    </linearGradient>
    <linearGradient
       id="linearGradient5740-3-8">
      <stop
         id="stop5742-0-1"
         offset="0.0000000"
         style="stop-color:#ffffff;stop-opacity:1.0000000;" />
      <stop
         id="stop5744-9-8"
         offset="1.0000000"
         style="stop-color:#98b6d3;stop-opacity:1.0000000;" />
    </linearGradient>
    <linearGradient
       id="linearGradient3480-0-6">
      <stop
         id="stop3482-2-7"
         offset="0.0000000"
         style="stop-color:#646464;stop-opacity:1.0000000;" />
      <stop
         id="stop3484-8-440"
         offset="1.0000000"
         style="stop-color:#000000;stop-opacity:1.0000000;" />
    </linearGradient>
    <linearGradient
       id="linearGradient6684-9-5">
      <stop
         style="stop-color:#ffbf00;stop-opacity:1.0000000;"
         offset="0.0000000"
         id="stop6686-6-0" />
      <stop
         style="stop-color:#ffffff;stop-opacity:1.0000000;"
         offset="1.0000000"
         id="stop6688-77-0" />
    </linearGradient>
    <linearGradient
       id="linearGradient3480-0-2">
      <stop
         id="stop3482-2-9"
         offset="0.0000000"
         style="stop-color:#646464;stop-opacity:1.0000000;" />
      <stop
         id="stop3484-8-9"
         offset="1.0000000"
         style="stop-color:#000000;stop-opacity:1.0000000;" />
    </linearGradient>
    <linearGradient
       id="linearGradient3480-0-5">
      <stop
         id="stop3482-2-53"
         offset="0.0000000"
         style="stop-color:#646464;stop-opacity:1.0000000;" />
      <stop
         id="stop3484-8-0"
         offset="1.0000000"
         style="stop-color:#000000;stop-opacity:1.0000000;" />
    </linearGradient>
    <linearGradient
       id="linearGradient9708">
      <stop
         id="stop9710"
         offset="0.0000000"
         style="stop-color:#646464;stop-opacity:1.0000000;" />
      <stop
         id="stop9712"
         offset="1.0000000"
         style="stop-color:#000000;stop-opacity:1.0000000;" />
    </linearGradient>
    <linearGradient
       id="linearGradient6684-9-9">
      <stop
         style="stop-color:#ffbf00;stop-opacity:1.0000000;"
         offset="0.0000000"
         id="stop6686-6-9" />
      <stop
         style="stop-color:#ffffff;stop-opacity:1.0000000;"
         offset="1.0000000"
         id="stop6688-77-6" />
    </linearGradient>
    <linearGradient
       id="linearGradient9719">
      <stop
         id="stop9721"
         offset="0.0000000"
         style="stop-color:#646464;stop-opacity:1.0000000;" />
      <stop
         id="stop9723"
         offset="1.0000000"
         style="stop-color:#000000;stop-opacity:1.0000000;" />
    </linearGradient>
    <linearGradient
       id="linearGradient3480-0-3">
      <stop
         id="stop3482-2-07"
         offset="0.0000000"
         style="stop-color:#646464;stop-opacity:1.0000000;" />
      <stop
         id="stop3484-8-5"
         offset="1.0000000"
         style="stop-color:#000000;stop-opacity:1.0000000;" />
    </linearGradient>
    <linearGradient
       id="linearGradient9831">
      <stop
         id="stop9833"
         offset="0.0000000"
         style="stop-color:#646464;stop-opacity:1.0000000;" />
      <stop
         id="stop9835"
         offset="1.0000000"
         style="stop-color:#000000;stop-opacity:1.0000000;" />
    </linearGradient>
    <linearGradient
       id="linearGradient5740-3-1">
      <stop
         id="stop5742-0-2"
         offset="0.0000000"
         style="stop-color:#ffffff;stop-opacity:1.0000000;" />
      <stop
         id="stop5744-9-2"
         offset="1.0000000"
         style="stop-color:#98b6d3;stop-opacity:1.0000000;" />
    </linearGradient>
    <linearGradient
       id="linearGradient9842">
      <stop
         id="stop9844"
         offset="0.0000000"
         style="stop-color:#646464;stop-opacity:1.0000000;" />
      <stop
         id="stop9846"
         offset="1.0000000"
         style="stop-color:#000000;stop-opacity:1.0000000;" />
    </linearGradient>
    <linearGradient
       id="linearGradient2888-8">
      <stop
         id="stop2889-6"
         offset="0.0000000"
         style="stop-color:#ffffff;stop-opacity:1.0000000;" />
      <stop
         id="stop2894-2"
         offset="1"
         style="stop-color:#8ab3de;stop-opacity:1;" />
    </linearGradient>
    <linearGradient
       inkscape:collect="always"
       xlink:href="#linearGradient3480-6"
       id="linearGradient8634"
       gradientUnits="userSpaceOnUse"
       gradientTransform="matrix(1,0,0,0.997925,532.72758,102.62718)"
       x1="8"
       y1="251"
       x2="14.320742"
       y2="257.66202" />
    <linearGradient
       id="linearGradient3480-6">
      <stop
         id="stop3482-3"
         offset="0.0000000"
         style="stop-color:#646464;stop-opacity:1.0000000;" />
      <stop
         id="stop3484-1"
         offset="1.0000000"
         style="stop-color:#000000;stop-opacity:1.0000000;" />
    </linearGradient>
    <linearGradient
       id="linearGradient2888-8-1">
      <stop
         id="stop2889-6-9"
         offset="0.0000000"
         style="stop-color:#ffffff;stop-opacity:1.0000000;" />
      <stop
         id="stop2894-2-4"
         offset="1"
         style="stop-color:#8ab3de;stop-opacity:1;" />
    </linearGradient>
    <linearGradient
       inkscape:collect="always"
       xlink:href="#linearGradient3480-6-2"
       id="linearGradient8630"
       gradientUnits="userSpaceOnUse"
       gradientTransform="translate(552.75878,102.12875)"
       x1="8"
       y1="251"
       x2="14.320742"
       y2="257.66202" />
    <linearGradient
       id="linearGradient3480-6-2">
      <stop
         id="stop3482-3-2"
         offset="0.0000000"
         style="stop-color:#646464;stop-opacity:1.0000000;" />
      <stop
         id="stop3484-1-4"
         offset="1.0000000"
         style="stop-color:#000000;stop-opacity:1.0000000;" />
    </linearGradient>
    <linearGradient
       id="linearGradient2888-8-0">
      <stop
         id="stop2889-6-91"
         offset="0.0000000"
         style="stop-color:#ffffff;stop-opacity:1.0000000;" />
      <stop
         id="stop2894-2-5"
         offset="1"
         style="stop-color:#8ab3de;stop-opacity:1;" />
    </linearGradient>
    <linearGradient
       id="linearGradient2888-8-16">
      <stop
         id="stop2889-6-7"
         offset="0.0000000"
         style="stop-color:#ffffff;stop-opacity:1.0000000;" />
      <stop
         id="stop2894-2-2"
         offset="1"
         style="stop-color:#8ab3de;stop-opacity:1;" />
    </linearGradient>
    <linearGradient
       id="linearGradient2888-8-9">
      <stop
         id="stop2889-6-8"
         offset="0.0000000"
         style="stop-color:#ffffff;stop-opacity:1.0000000;" />
      <stop
         id="stop2894-2-3"
         offset="1"
         style="stop-color:#8ab3de;stop-opacity:1;" />
    </linearGradient>
    <linearGradient
       id="linearGradient2888-8-4">
      <stop
         id="stop2889-6-4"
         offset="0.0000000"
         style="stop-color:#ffffff;stop-opacity:1.0000000;" />
      <stop
         id="stop2894-2-8"
         offset="1"
         style="stop-color:#8ab3de;stop-opacity:1;" />
    </linearGradient>
    <linearGradient
       id="linearGradient2888-8-43">
      <stop
         id="stop2889-6-72"
         offset="0.0000000"
         style="stop-color:#ffffff;stop-opacity:1.0000000;" />
      <stop
         id="stop2894-2-80"
         offset="1"
         style="stop-color:#8ab3de;stop-opacity:1;" />
    </linearGradient>
    <linearGradient
       id="linearGradient5704-7">
      <stop
         style="stop-color:#5a5a5a;stop-opacity:1;"
         offset="0"
         id="stop5706-4" />
      <stop
         style="stop-color:#000000;stop-opacity:1.0000000;"
         offset="1.0000000"
         id="stop5708-5" />
    </linearGradient>
    <linearGradient
       id="linearGradient6684-5">
      <stop
         style="stop-color:#ffbf00;stop-opacity:1.0000000;"
         offset="0.0000000"
         id="stop6686-0" />
      <stop
         style="stop-color:#ffffff;stop-opacity:1.0000000;"
         offset="1.0000000"
         id="stop6688-4" />
    </linearGradient>
    <linearGradient
       id="linearGradient10429">
      <stop
         style="stop-color:#ffbf00;stop-opacity:1.0000000;"
         offset="0.0000000"
         id="stop10431" />
      <stop
         style="stop-color:#ffffff;stop-opacity:1.0000000;"
         offset="1.0000000"
         id="stop10433" />
    </linearGradient>
    <linearGradient
       id="linearGradient10436">
      <stop
         style="stop-color:#5a5a5a;stop-opacity:1;"
         offset="0"
         id="stop10438" />
      <stop
         style="stop-color:#000000;stop-opacity:1.0000000;"
         offset="1.0000000"
         id="stop10440" />
    </linearGradient>
    <linearGradient
       inkscape:collect="always"
       xlink:href="#linearGradient6684-5"
       id="linearGradient8060"
       gradientUnits="userSpaceOnUse"
       gradientTransform="matrix(0.49959346,0,0,1.0005695,544.63129,246.90626)"
       x1="17.075911"
       y1="215.67207"
       x2="19.156134"
       y2="217.01157" />
    <linearGradient
       id="linearGradient10443">
      <stop
         style="stop-color:#ffbf00;stop-opacity:1.0000000;"
         offset="0.0000000"
         id="stop10445" />
      <stop
         style="stop-color:#ffffff;stop-opacity:1.0000000;"
         offset="1.0000000"
         id="stop10447" />
    </linearGradient>
    <linearGradient
       inkscape:collect="always"
       xlink:href="#linearGradient6684-5"
       id="linearGradient8062"
       gradientUnits="userSpaceOnUse"
       gradientTransform="matrix(0.37600511,0,0,0.59950606,546.91118,333.94625)"
       x1="19.762522"
       y1="220.34328"
       x2="16.232185"
       y2="215.46176" />
    <linearGradient
       id="linearGradient10450">
      <stop
         style="stop-color:#ffbf00;stop-opacity:1.0000000;"
         offset="0.0000000"
         id="stop10452" />
      <stop
         style="stop-color:#ffffff;stop-opacity:1.0000000;"
         offset="1.0000000"
         id="stop10454" />
    </linearGradient>
    <linearGradient
       xlink:href="#linearGradient2888"
       gradientUnits="userSpaceOnUse"
       y2="146.119"
       x2="172.70799"
       y1="167.853"
       x1="182.981"
       id="linearGradient5536"
       inkscape:collect="always" />
    <linearGradient
       id="linearGradient2888">
      <stop
         id="stop2889"
         offset="0.0000000"
         style="stop-color:#ffffff;stop-opacity:1.0000000;" />
      <stop
         id="stop2894"
         offset="1"
         style="stop-color:#8ab3de;stop-opacity:1;" />
    </linearGradient>
    <linearGradient
       xlink:href="#linearGradient2888"
       y2="41.695"
       x2="-21.25"
       y1="34.121754"
       x1="-26.252876"
       gradientTransform="translate(200,120)"
       gradientUnits="userSpaceOnUse"
       id="linearGradient5524"
       inkscape:collect="always" />
    <linearGradient
       id="linearGradient10710">
      <stop
         id="stop10712"
         offset="0.0000000"
         style="stop-color:#ffffff;stop-opacity:1.0000000;" />
      <stop
         id="stop10714"
         offset="1"
         style="stop-color:#8ab3de;stop-opacity:1;" />
    </linearGradient>
    <linearGradient
       xlink:href="#linearGradient800"
       y2="120.57917"
       x2="98.377357"
       y1="120.625"
       x1="95.237885"
       gradientTransform="matrix(0.833333,0,0,1,7.291667,1.125)"
       gradientUnits="userSpaceOnUse"
       id="linearGradient4723"
       inkscape:collect="always" />
    <linearGradient
       id="linearGradient800">
      <stop
         id="stop998"
         offset="0"
         style="stop-color:#f3ff49;stop-opacity:1;" />
      <stop
         id="stop999"
         offset="1"
         style="stop-color:#ffa01e;stop-opacity:1;" />
    </linearGradient>
    <linearGradient
       xlink:href="#linearGradient800"
       gradientUnits="userSpaceOnUse"
       y2="118.8367"
       x2="89.002983"
       y1="120.64272"
       x1="85.865807"
       id="linearGradient5492"
       inkscape:collect="always" />
    <linearGradient
       id="linearGradient10721">
      <stop
         id="stop10723"
         offset="0"
         style="stop-color:#f3ff49;stop-opacity:1;" />
      <stop
         id="stop10725"
         offset="1"
         style="stop-color:#ffa01e;stop-opacity:1;" />
    </linearGradient>
    <linearGradient
       xlink:href="#linearGradient5858"
       y2="120.82606"
       x2="73.446037"
       y1="122.50062"
       x1="64.943275"
       gradientTransform="matrix(0.845944,0,0,1,30.563,-0.625005)"
       gradientUnits="userSpaceOnUse"
       id="linearGradient4728"
       inkscape:collect="always" />
    <linearGradient
       id="linearGradient5858">
      <stop
         style="stop-color:#ffa01e"
         offset="0.0000000"
         id="stop5860" />
      <stop
         style="stop-color:#000000;stop-opacity:1.0000000;"
         offset="1.0000000"
         id="stop5862" />
    </linearGradient>
    <linearGradient
       xlink:href="#linearGradient2485"
       gradientUnits="userSpaceOnUse"
       y2="125.95964"
       x2="89.703491"
       y1="125.87318"
       x1="85.640419"
       id="linearGradient5476"
       inkscape:collect="always" />
    <linearGradient
       id="linearGradient2485">
      <stop
         id="stop2486"
         offset="0.0000000"
         style="stop-color:#ffffff;stop-opacity:1.0000000" />
      <stop
         id="stop2487"
         offset="1.0000000"
         style="stop-color:#aaaaaa;stop-opacity:1.0000000;" />
    </linearGradient>
    <linearGradient
       xlink:href="#linearGradient3480"
       y2="128.70482"
       x2="70.212822"
       y1="132.3595"
       x1="66.82119"
       gradientTransform="matrix(0.845944,0,0,1,30.52281,-4.619314)"
       gradientUnits="userSpaceOnUse"
       id="linearGradient4726"
       inkscape:collect="always" />
    <linearGradient
       id="linearGradient3480">
      <stop
         id="stop3482"
         offset="0.0000000"
         style="stop-color:#646464;stop-opacity:1.0000000;" />
      <stop
         id="stop3484"
         offset="1.0000000"
         style="stop-color:#000000;stop-opacity:1.0000000;" />
    </linearGradient>
  </defs>
  <sodipodi:namedview
     id="base"
     pagecolor="#ffffff"
     bordercolor="#666666"
     borderopacity="1.0"
     inkscape:pageopacity="0.0"
     inkscape:pageshadow="2"
     inkscape:zoom="0.49497475"
     inkscape:cx="12.012148"
     inkscape:cy="12.013025"
     inkscape:document-units="px"
     inkscape:current-layer="layer1"
     showgrid="false"
     inkscape:window-width="473"
     inkscape:window-height="422"
     inkscape:window-x="0"
     inkscape:window-y="24"
     inkscape:window-maximized="0"
     fit-margin-top="0"
     fit-margin-left="0"
     fit-margin-right="0"
     fit-margin-bottom="0" />
  <metadata
     id="metadata8708">
    <rdf:RDF>
      <cc:Work
         rdf:about="">
        <dc:format>image/svg+xml</dc:format>
        <dc:type
           rdf:resource="http://purl.org/dc/dcmitype/StillImage" />
        <dc:title />
      </cc:Work>
    </rdf:RDF>
  </metadata>
  <g
     inkscape:label="Layer 1"
     inkscape:groupmode="layer"
     id="layer1"
     transform="translate(-362.98785,-520.34916)">
    <g
       id="zoom"
       transform="translate(193.01211,370.37515)"
       inkscape:label="#draw_zoom">
      <path
         transform="matrix(1.087654,0,0,1.087684,-16.16957,-14.33312)"
         d="m 186,159 c 0,3.86599 -3.13401,7 -7,7 -3.86599,0 -7,-3.13401 -7,-7 0,-3.86599 3.13401,-7 7,-7 3.86599,0 7,3.13401 7,7 z"
         sodipodi:ry="7"
         sodipodi:rx="7"
         sodipodi:cy="159"
         sodipodi:cx="179"
         id="path4199"
         style="color:#000000;fill:#c8c8c8;fill-opacity:1;fill-rule:evenodd;stroke:#c8c8c8;stroke-width:0.87048578;stroke-linecap:round;stroke-linejoin:round;stroke-miterlimit:0;stroke-opacity:1;stroke-dasharray:none;stroke-dashoffset:0;marker:none;display:inline"
         sodipodi:type="arc" />
      <rect
         y="150"
         x="170"
         height="24"
         width="24"
         id="rect4242"
         style="color:#000000;fill:none;stroke:none;stroke-width:1;marker:none;display:inline" />
      <path
         transform="matrix(1.075061,0,0,1.075185,-14.43475,-12.95411)"
         d="m 186,159 c 0,3.86599 -3.13401,7 -7,7 -3.86599,0 -7,-3.13401 -7,-7 0,-3.86599 3.13401,-7 7,-7 3.86599,0 7,3.13401 7,7 z"
         sodipodi:ry="7"
         sodipodi:rx="7"
         sodipodi:cy="159"
         sodipodi:cx="179"
         id="path4272"
         style="color:#000000;fill:url(#linearGradient5536);fill-opacity:1;fill-rule:evenodd;stroke:#000000;stroke-width:0.93012607;stroke-linecap:round;stroke-linejoin:round;stroke-miterlimit:0;stroke-opacity:1;stroke-dasharray:none;stroke-dashoffset:0;marker:none;display:inline"
         sodipodi:type="arc" />
      <path
         inkscape:connector-curvature="0"
         style="fill:url(#linearGradient5524);fill-opacity:1;fill-rule:evenodd;stroke:none"
         d="m 172,160 c 5,-1 4,-6 9,-7 -2,-2 -5.5,-1.1667 -7,0 -1.5,1.1667 -3,5 -2,7 z"
         id="path5507"
         sodipodi:nodetypes="cczc" />
      <g
         transform="matrix(-0.707107,0.707107,-0.732853,-0.732853,338.9611,194.4488)"
         id="g4696">
        <path
           inkscape:connector-curvature="0"
           style="fill:url(#linearGradient4723);fill-opacity:1;fill-rule:evenodd;stroke:none"
           d="m 85.625,124.8009 c 1.66667,-1 3.33333,-1 5,0 l -0.37872,-8.8418 c -1.34906,-0.6533 -2.61846,-0.4612 -4.16666,0 l -0.45462,8.8418 z"
           id="path4701"
           sodipodi:nodetypes="ccccc" />
        <path
           inkscape:connector-curvature="0"
           style="fill:url(#linearGradient5492);fill-opacity:1;fill-rule:evenodd;stroke:url(#linearGradient4728);stroke-width:0.96486819;stroke-linecap:round;stroke-linejoin:round;stroke-miterlimit:4;stroke-opacity:1;stroke-dasharray:none"
           d="m 90.62502,124.8009 -0.04238,-8.8198 c -0.84595,-1 -4.18514,-1.0458 -5.03108,-0.0458 l 0.07344,8.8656"
           id="path4709"
           sodipodi:nodetypes="cccc" />
        <path
           inkscape:connector-curvature="0"
           style="fill:url(#linearGradient5476);fill-opacity:1;fill-rule:evenodd;stroke:url(#linearGradient4726);stroke-width:0.96486819;stroke-linecap:round;stroke-linejoin:round;stroke-miterlimit:4;stroke-opacity:1;stroke-dasharray:none"
           d="m 85.625,124.8009 0.91846,1.7806 c 1.03983,-0.2114 2.01992,-0.173 3,0 l 1.08154,-1.7806 c -0.84594,-1 -4.15406,-1 -5,0 z"
           id="path4705"
           sodipodi:nodetypes="ccccc" />
        <path
           inkscape:connector-curvature="0"
           sodipodi:nodetypes="cc"
           id="path4711"
           d="m 86.62925,116.947 -0.0042,6.2357"
           style="fill:none;stroke:#ffffff;stroke-width:0.96486819;stroke-linecap:round;stroke-linejoin:miter;stroke-miterlimit:4;stroke-opacity:1;stroke-dasharray:none" />
      </g>
    </g>
  </g>
</svg>
