<?xml version="1.0" encoding="UTF-8" standalone="no"?>
<!-- Created with Inkscape (http://www.inkscape.org/) -->

<svg
   xmlns:dc="http://purl.org/dc/elements/1.1/"
   xmlns:cc="http://creativecommons.org/ns#"
   xmlns:rdf="http://www.w3.org/1999/02/22-rdf-syntax-ns#"
   xmlns:svg="http://www.w3.org/2000/svg"
   xmlns="http://www.w3.org/2000/svg"
   xmlns:xlink="http://www.w3.org/1999/xlink"
   xmlns:sodipodi="http://sodipodi.sourceforge.net/DTD/sodipodi-0.dtd"
   xmlns:inkscape="http://www.inkscape.org/namespaces/inkscape"
   width="16.000908"
   height="16.024626"
   id="svg8703"
   version="1.1"
   inkscape:version="0.48.4 r9939"
   sodipodi:docname="zoom12.svg">
  <defs
     id="defs8705">
    <linearGradient
       id="linearGradient5704-3">
      <stop
         style="stop-color:#5a5a5a;stop-opacity:1;"
         offset="0"
         id="stop5706-58" />
      <stop
         style="stop-color:#000000;stop-opacity:1.0000000;"
         offset="1.0000000"
         id="stop5708-9" />
    </linearGradient>
    <linearGradient
       id="linearGradient5740-4">
      <stop
         id="stop5742-3"
         offset="0.0000000"
         style="stop-color:#ffffff;stop-opacity:1.0000000;" />
      <stop
         id="stop5744-2"
         offset="1.0000000"
         style="stop-color:#98b6d3;stop-opacity:1.0000000;" />
    </linearGradient>
    <linearGradient
       id="linearGradient8663">
      <stop
         id="stop8665"
         offset="0.0000000"
         style="stop-color:#ffffff;stop-opacity:1.0000000;" />
      <stop
         id="stop8667"
         offset="1.0000000"
         style="stop-color:#98b6d3;stop-opacity:1.0000000;" />
    </linearGradient>
    <linearGradient
       id="linearGradient8670">
      <stop
         style="stop-color:#5a5a5a;stop-opacity:1;"
         offset="0"
         id="stop8672" />
      <stop
         style="stop-color:#000000;stop-opacity:1.0000000;"
         offset="1.0000000"
         id="stop8674" />
    </linearGradient>
    <linearGradient
       inkscape:collect="always"
       xlink:href="#linearGradient5740-4"
       id="linearGradient8369"
       gradientUnits="userSpaceOnUse"
       x1="108.35131"
       y1="215.4819"
       x2="101.19292"
       y2="206.99658" />
    <linearGradient
       id="linearGradient8677">
      <stop
         id="stop8679"
         offset="0.0000000"
         style="stop-color:#ffffff;stop-opacity:1.0000000;" />
      <stop
         id="stop8681"
         offset="1.0000000"
         style="stop-color:#98b6d3;stop-opacity:1.0000000;" />
    </linearGradient>
    <linearGradient
       inkscape:collect="always"
       xlink:href="#linearGradient5740-4"
       id="linearGradient8371"
       gradientUnits="userSpaceOnUse"
       x1="101.75068"
       y1="205.19197"
       x2="108.8156"
       y2="212.99005" />
    <linearGradient
       id="linearGradient8684">
      <stop
         id="stop8686"
         offset="0.0000000"
         style="stop-color:#ffffff;stop-opacity:1.0000000;" />
      <stop
         id="stop8688"
         offset="1.0000000"
         style="stop-color:#98b6d3;stop-opacity:1.0000000;" />
    </linearGradient>
    <linearGradient
       id="linearGradient5704-3-0">
      <stop
         style="stop-color:#5a5a5a;stop-opacity:1;"
         offset="0"
         id="stop5706-58-9" />
      <stop
         style="stop-color:#000000;stop-opacity:1.0000000;"
         offset="1.0000000"
         id="stop5708-9-6" />
    </linearGradient>
    <linearGradient
       id="linearGradient6684-0">
      <stop
         style="stop-color:#ffbf00;stop-opacity:1.0000000;"
         offset="0.0000000"
         id="stop6686-4" />
      <stop
         style="stop-color:#ffffff;stop-opacity:1.0000000;"
         offset="1.0000000"
         id="stop6688-5" />
    </linearGradient>
    <linearGradient
       id="linearGradient8824">
      <stop
         style="stop-color:#ffbf00;stop-opacity:1.0000000;"
         offset="0.0000000"
         id="stop8826" />
      <stop
         style="stop-color:#ffffff;stop-opacity:1.0000000;"
         offset="1.0000000"
         id="stop8828" />
    </linearGradient>
    <linearGradient
       id="linearGradient8831">
      <stop
         style="stop-color:#5a5a5a;stop-opacity:1;"
         offset="0"
         id="stop8833" />
      <stop
         style="stop-color:#000000;stop-opacity:1.0000000;"
         offset="1.0000000"
         id="stop8835" />
    </linearGradient>
    <linearGradient
       inkscape:collect="always"
       xlink:href="#linearGradient5740-4-8"
       id="linearGradient8286"
       gradientUnits="userSpaceOnUse"
       x1="108.35131"
       y1="215.4819"
       x2="101.19292"
       y2="206.99658" />
    <linearGradient
       id="linearGradient5740-4-8">
      <stop
         id="stop5742-3-5"
         offset="0.0000000"
         style="stop-color:#ffffff;stop-opacity:1.0000000;" />
      <stop
         id="stop5744-2-8"
         offset="1.0000000"
         style="stop-color:#98b6d3;stop-opacity:1.0000000;" />
    </linearGradient>
    <linearGradient
       inkscape:collect="always"
       xlink:href="#linearGradient5740-4-8"
       id="linearGradient8288"
       gradientUnits="userSpaceOnUse"
       x1="101.75068"
       y1="205.19197"
       x2="108.8156"
       y2="212.99005" />
    <linearGradient
       id="linearGradient8842">
      <stop
         id="stop8844"
         offset="0.0000000"
         style="stop-color:#ffffff;stop-opacity:1.0000000;" />
      <stop
         id="stop8846"
         offset="1.0000000"
         style="stop-color:#98b6d3;stop-opacity:1.0000000;" />
    </linearGradient>
    <linearGradient
       id="linearGradient3480-0">
      <stop
         id="stop3482-2"
         offset="0.0000000"
         style="stop-color:#646464;stop-opacity:1.0000000;" />
      <stop
         id="stop3484-8"
         offset="1.0000000"
         style="stop-color:#000000;stop-opacity:1.0000000;" />
    </linearGradient>
    <linearGradient
       id="linearGradient5740-3">
      <stop
         id="stop5742-0"
         offset="0.0000000"
         style="stop-color:#ffffff;stop-opacity:1.0000000;" />
      <stop
         id="stop5744-9"
         offset="1.0000000"
         style="stop-color:#98b6d3;stop-opacity:1.0000000;" />
    </linearGradient>
    <linearGradient
       id="linearGradient8983">
      <stop
         id="stop8985"
         offset="0.0000000"
         style="stop-color:#646464;stop-opacity:1.0000000;" />
      <stop
         id="stop8987"
         offset="1.0000000"
         style="stop-color:#000000;stop-opacity:1.0000000;" />
    </linearGradient>
    <linearGradient
       id="linearGradient8990">
      <stop
         id="stop8992"
         offset="0.0000000"
         style="stop-color:#646464;stop-opacity:1.0000000;" />
      <stop
         id="stop8994"
         offset="1.0000000"
         style="stop-color:#000000;stop-opacity:1.0000000;" />
    </linearGradient>
    <linearGradient
       id="linearGradient8997">
      <stop
         id="stop8999"
         offset="0.0000000"
         style="stop-color:#646464;stop-opacity:1.0000000;" />
      <stop
         id="stop9001"
         offset="1.0000000"
         style="stop-color:#000000;stop-opacity:1.0000000;" />
    </linearGradient>
    <linearGradient
       id="linearGradient9004">
      <stop
         id="stop9006"
         offset="0.0000000"
         style="stop-color:#646464;stop-opacity:1.0000000;" />
      <stop
         id="stop9008"
         offset="1.0000000"
         style="stop-color:#000000;stop-opacity:1.0000000;" />
    </linearGradient>
    <linearGradient
       id="linearGradient3480-0-8">
      <stop
         id="stop3482-2-0"
         offset="0.0000000"
         style="stop-color:#646464;stop-opacity:1.0000000;" />
      <stop
         id="stop3484-8-4"
         offset="1.0000000"
         style="stop-color:#000000;stop-opacity:1.0000000;" />
    </linearGradient>
    <linearGradient
       id="linearGradient9121">
      <stop
         id="stop9123"
         offset="0.0000000"
         style="stop-color:#646464;stop-opacity:1.0000000;" />
      <stop
         id="stop9125"
         offset="1.0000000"
         style="stop-color:#000000;stop-opacity:1.0000000;" />
    </linearGradient>
    <linearGradient
       id="linearGradient9128">
      <stop
         id="stop9130"
         offset="0.0000000"
         style="stop-color:#646464;stop-opacity:1.0000000;" />
      <stop
         id="stop9132"
         offset="1.0000000"
         style="stop-color:#000000;stop-opacity:1.0000000;" />
    </linearGradient>
    <linearGradient
       id="linearGradient6684-9">
      <stop
         style="stop-color:#ffbf00;stop-opacity:1.0000000;"
         offset="0.0000000"
         id="stop6686-6" />
      <stop
         style="stop-color:#ffffff;stop-opacity:1.0000000;"
         offset="1.0000000"
         id="stop6688-77" />
    </linearGradient>
    <linearGradient
       id="linearGradient9139">
      <stop
         id="stop9141"
         offset="0.0000000"
         style="stop-color:#646464;stop-opacity:1.0000000;" />
      <stop
         id="stop9143"
         offset="1.0000000"
         style="stop-color:#000000;stop-opacity:1.0000000;" />
    </linearGradient>
    <linearGradient
       inkscape:collect="always"
       xlink:href="#linearGradient3480-0-8"
       id="linearGradient8530"
       gradientUnits="userSpaceOnUse"
       gradientTransform="matrix(1.592997,0,0,1,344.0049,269.21353)"
       x1="-37.500759"
       y1="181.99083"
       x2="-29.000008"
       y2="181.99083" />
    <linearGradient
       id="linearGradient9146">
      <stop
         id="stop9148"
         offset="0.0000000"
         style="stop-color:#646464;stop-opacity:1.0000000;" />
      <stop
         id="stop9150"
         offset="1.0000000"
         style="stop-color:#000000;stop-opacity:1.0000000;" />
    </linearGradient>
    <linearGradient
       id="linearGradient3480-0-4">
      <stop
         id="stop3482-2-5"
         offset="0.0000000"
         style="stop-color:#646464;stop-opacity:1.0000000;" />
      <stop
         id="stop3484-8-44"
         offset="1.0000000"
         style="stop-color:#000000;stop-opacity:1.0000000;" />
    </linearGradient>
    <linearGradient
       id="linearGradient9267">
      <stop
         id="stop9269"
         offset="0.0000000"
         style="stop-color:#646464;stop-opacity:1.0000000;" />
      <stop
         id="stop9271"
         offset="1.0000000"
         style="stop-color:#000000;stop-opacity:1.0000000;" />
    </linearGradient>
    <linearGradient
       id="linearGradient9274">
      <stop
         id="stop9276"
         offset="0.0000000"
         style="stop-color:#646464;stop-opacity:1.0000000;" />
      <stop
         id="stop9278"
         offset="1.0000000"
         style="stop-color:#000000;stop-opacity:1.0000000;" />
    </linearGradient>
    <linearGradient
       id="linearGradient9281">
      <stop
         id="stop9283"
         offset="0.0000000"
         style="stop-color:#646464;stop-opacity:1.0000000;" />
      <stop
         id="stop9285"
         offset="1.0000000"
         style="stop-color:#000000;stop-opacity:1.0000000;" />
    </linearGradient>
    <linearGradient
       inkscape:collect="always"
       xlink:href="#linearGradient5740-3-5"
       id="linearGradient8484"
       gradientUnits="userSpaceOnUse"
       gradientTransform="matrix(1,0,0,0.957993,326.27709,296.75006)"
       x1="-48.429123"
       y1="179.49295"
       x2="-27.038502"
       y2="179.49295" />
    <linearGradient
       id="linearGradient5740-3-5">
      <stop
         id="stop5742-0-3"
         offset="0.0000000"
         style="stop-color:#ffffff;stop-opacity:1.0000000;" />
      <stop
         id="stop5744-9-1"
         offset="1.0000000"
         style="stop-color:#98b6d3;stop-opacity:1.0000000;" />
    </linearGradient>
    <linearGradient
       inkscape:collect="always"
       xlink:href="#linearGradient3480-0-4"
       id="linearGradient8486"
       gradientUnits="userSpaceOnUse"
       gradientTransform="matrix(1,0,0,0.963346,326.27709,295.75335)"
       x1="-44.36454"
       y1="181.54939"
       x2="-29.63546"
       y2="181.64502" />
    <linearGradient
       id="linearGradient9292">
      <stop
         id="stop9294"
         offset="0.0000000"
         style="stop-color:#646464;stop-opacity:1.0000000;" />
      <stop
         id="stop9296"
         offset="1.0000000"
         style="stop-color:#000000;stop-opacity:1.0000000;" />
    </linearGradient>
    <linearGradient
       id="linearGradient3480-0-9">
      <stop
         id="stop3482-2-00"
         offset="0.0000000"
         style="stop-color:#646464;stop-opacity:1.0000000;" />
      <stop
         id="stop3484-8-47"
         offset="1.0000000"
         style="stop-color:#000000;stop-opacity:1.0000000;" />
    </linearGradient>
    <linearGradient
       id="linearGradient9417">
      <stop
         id="stop9419"
         offset="0.0000000"
         style="stop-color:#646464;stop-opacity:1.0000000;" />
      <stop
         id="stop9421"
         offset="1.0000000"
         style="stop-color:#000000;stop-opacity:1.0000000;" />
    </linearGradient>
    <linearGradient
       id="linearGradient9424">
      <stop
         id="stop9426"
         offset="0.0000000"
         style="stop-color:#646464;stop-opacity:1.0000000;" />
      <stop
         id="stop9428"
         offset="1.0000000"
         style="stop-color:#000000;stop-opacity:1.0000000;" />
    </linearGradient>
    <linearGradient
       id="linearGradient9431">
      <stop
         id="stop9433"
         offset="0.0000000"
         style="stop-color:#646464;stop-opacity:1.0000000;" />
      <stop
         id="stop9435"
         offset="1.0000000"
         style="stop-color:#000000;stop-opacity:1.0000000;" />
    </linearGradient>
    <linearGradient
       id="linearGradient6684-9-0">
      <stop
         style="stop-color:#ffbf00;stop-opacity:1.0000000;"
         offset="0.0000000"
         id="stop6686-6-5" />
      <stop
         style="stop-color:#ffffff;stop-opacity:1.0000000;"
         offset="1.0000000"
         id="stop6688-77-2" />
    </linearGradient>
    <linearGradient
       id="linearGradient9442">
      <stop
         id="stop9444"
         offset="0.0000000"
         style="stop-color:#646464;stop-opacity:1.0000000;" />
      <stop
         id="stop9446"
         offset="1.0000000"
         style="stop-color:#000000;stop-opacity:1.0000000;" />
    </linearGradient>
    <linearGradient
       id="linearGradient5740-3-8">
      <stop
         id="stop5742-0-1"
         offset="0.0000000"
         style="stop-color:#ffffff;stop-opacity:1.0000000;" />
      <stop
         id="stop5744-9-8"
         offset="1.0000000"
         style="stop-color:#98b6d3;stop-opacity:1.0000000;" />
    </linearGradient>
    <linearGradient
       id="linearGradient3480-0-6">
      <stop
         id="stop3482-2-7"
         offset="0.0000000"
         style="stop-color:#646464;stop-opacity:1.0000000;" />
      <stop
         id="stop3484-8-440"
         offset="1.0000000"
         style="stop-color:#000000;stop-opacity:1.0000000;" />
    </linearGradient>
    <linearGradient
       id="linearGradient6684-9-5">
      <stop
         style="stop-color:#ffbf00;stop-opacity:1.0000000;"
         offset="0.0000000"
         id="stop6686-6-0" />
      <stop
         style="stop-color:#ffffff;stop-opacity:1.0000000;"
         offset="1.0000000"
         id="stop6688-77-0" />
    </linearGradient>
    <linearGradient
       id="linearGradient3480-0-2">
      <stop
         id="stop3482-2-9"
         offset="0.0000000"
         style="stop-color:#646464;stop-opacity:1.0000000;" />
      <stop
         id="stop3484-8-9"
         offset="1.0000000"
         style="stop-color:#000000;stop-opacity:1.0000000;" />
    </linearGradient>
    <linearGradient
       id="linearGradient3480-0-5">
      <stop
         id="stop3482-2-53"
         offset="0.0000000"
         style="stop-color:#646464;stop-opacity:1.0000000;" />
      <stop
         id="stop3484-8-0"
         offset="1.0000000"
         style="stop-color:#000000;stop-opacity:1.0000000;" />
    </linearGradient>
    <linearGradient
       id="linearGradient9708">
      <stop
         id="stop9710"
         offset="0.0000000"
         style="stop-color:#646464;stop-opacity:1.0000000;" />
      <stop
         id="stop9712"
         offset="1.0000000"
         style="stop-color:#000000;stop-opacity:1.0000000;" />
    </linearGradient>
    <linearGradient
       id="linearGradient6684-9-9">
      <stop
         style="stop-color:#ffbf00;stop-opacity:1.0000000;"
         offset="0.0000000"
         id="stop6686-6-9" />
      <stop
         style="stop-color:#ffffff;stop-opacity:1.0000000;"
         offset="1.0000000"
         id="stop6688-77-6" />
    </linearGradient>
    <linearGradient
       id="linearGradient9719">
      <stop
         id="stop9721"
         offset="0.0000000"
         style="stop-color:#646464;stop-opacity:1.0000000;" />
      <stop
         id="stop9723"
         offset="1.0000000"
         style="stop-color:#000000;stop-opacity:1.0000000;" />
    </linearGradient>
    <linearGradient
       id="linearGradient3480-0-3">
      <stop
         id="stop3482-2-07"
         offset="0.0000000"
         style="stop-color:#646464;stop-opacity:1.0000000;" />
      <stop
         id="stop3484-8-5"
         offset="1.0000000"
         style="stop-color:#000000;stop-opacity:1.0000000;" />
    </linearGradient>
    <linearGradient
       id="linearGradient9831">
      <stop
         id="stop9833"
         offset="0.0000000"
         style="stop-color:#646464;stop-opacity:1.0000000;" />
      <stop
         id="stop9835"
         offset="1.0000000"
         style="stop-color:#000000;stop-opacity:1.0000000;" />
    </linearGradient>
    <linearGradient
       id="linearGradient5740-3-1">
      <stop
         id="stop5742-0-2"
         offset="0.0000000"
         style="stop-color:#ffffff;stop-opacity:1.0000000;" />
      <stop
         id="stop5744-9-2"
         offset="1.0000000"
         style="stop-color:#98b6d3;stop-opacity:1.0000000;" />
    </linearGradient>
    <linearGradient
       id="linearGradient9842">
      <stop
         id="stop9844"
         offset="0.0000000"
         style="stop-color:#646464;stop-opacity:1.0000000;" />
      <stop
         id="stop9846"
         offset="1.0000000"
         style="stop-color:#000000;stop-opacity:1.0000000;" />
    </linearGradient>
    <linearGradient
       id="linearGradient2888-8">
      <stop
         id="stop2889-6"
         offset="0.0000000"
         style="stop-color:#ffffff;stop-opacity:1.0000000;" />
      <stop
         id="stop2894-2"
         offset="1"
         style="stop-color:#8ab3de;stop-opacity:1;" />
    </linearGradient>
    <linearGradient
       inkscape:collect="always"
       xlink:href="#linearGradient3480-6"
       id="linearGradient8634"
       gradientUnits="userSpaceOnUse"
       gradientTransform="matrix(1,0,0,0.997925,532.72758,102.62718)"
       x1="8"
       y1="251"
       x2="14.320742"
       y2="257.66202" />
    <linearGradient
       id="linearGradient3480-6">
      <stop
         id="stop3482-3"
         offset="0.0000000"
         style="stop-color:#646464;stop-opacity:1.0000000;" />
      <stop
         id="stop3484-1"
         offset="1.0000000"
         style="stop-color:#000000;stop-opacity:1.0000000;" />
    </linearGradient>
    <linearGradient
       id="linearGradient2888-8-1">
      <stop
         id="stop2889-6-9"
         offset="0.0000000"
         style="stop-color:#ffffff;stop-opacity:1.0000000;" />
      <stop
         id="stop2894-2-4"
         offset="1"
         style="stop-color:#8ab3de;stop-opacity:1;" />
    </linearGradient>
    <linearGradient
       inkscape:collect="always"
       xlink:href="#linearGradient3480-6-2"
       id="linearGradient8630"
       gradientUnits="userSpaceOnUse"
       gradientTransform="translate(552.75878,102.12875)"
       x1="8"
       y1="251"
       x2="14.320742"
       y2="257.66202" />
    <linearGradient
       id="linearGradient3480-6-2">
      <stop
         id="stop3482-3-2"
         offset="0.0000000"
         style="stop-color:#646464;stop-opacity:1.0000000;" />
      <stop
         id="stop3484-1-4"
         offset="1.0000000"
         style="stop-color:#000000;stop-opacity:1.0000000;" />
    </linearGradient>
    <radialGradient
       inkscape:collect="always"
       xlink:href="#linearGradient2888-8-0"
       id="radialGradient8196"
       gradientUnits="userSpaceOnUse"
       gradientTransform="matrix(1.122233,1.252981,-2.05495,1.830229,297.3402,-339.2527)"
       cx="171.77553"
       cy="153.06299"
       fx="171.77553"
       fy="153.06299"
       r="7.4696794" />
    <linearGradient
       id="linearGradient2888-8-0">
      <stop
         id="stop2889-6-91"
         offset="0.0000000"
         style="stop-color:#ffffff;stop-opacity:1.0000000;" />
      <stop
         id="stop2894-2-5"
         offset="1"
         style="stop-color:#8ab3de;stop-opacity:1;" />
    </linearGradient>
    <radialGradient
       inkscape:collect="always"
       xlink:href="#linearGradient2888-8-16"
       id="radialGradient8182"
       gradientUnits="userSpaceOnUse"
       gradientTransform="matrix(1.122233,1.252981,-2.05495,1.830229,297.3402,-339.2527)"
       cx="171.77553"
       cy="153.06299"
       fx="171.77553"
       fy="153.06299"
       r="7.4696794" />
    <linearGradient
       id="linearGradient2888-8-16">
      <stop
         id="stop2889-6-7"
         offset="0.0000000"
         style="stop-color:#ffffff;stop-opacity:1.0000000;" />
      <stop
         id="stop2894-2-2"
         offset="1"
         style="stop-color:#8ab3de;stop-opacity:1;" />
    </linearGradient>
  </defs>
  <sodipodi:namedview
     id="base"
     pagecolor="#ffffff"
     bordercolor="#666666"
     borderopacity="1.0"
     inkscape:pageopacity="0.0"
     inkscape:pageshadow="2"
     inkscape:zoom="0.49497475"
     inkscape:cx="-51.365141"
     inkscape:cy="168.39801"
     inkscape:document-units="px"
     inkscape:current-layer="layer1"
     showgrid="false"
     inkscape:window-width="473"
     inkscape:window-height="422"
     inkscape:window-x="0"
     inkscape:window-y="24"
     inkscape:window-maximized="0"
     fit-margin-top="0"
     fit-margin-left="0"
     fit-margin-right="0"
     fit-margin-bottom="0" />
  <metadata
     id="metadata8708">
    <rdf:RDF>
      <cc:Work
         rdf:about="">
        <dc:format>image/svg+xml</dc:format>
        <dc:type
           rdf:resource="http://purl.org/dc/dcmitype/StillImage" />
        <dc:title />
      </cc:Work>
    </rdf:RDF>
  </metadata>
  <g
     inkscape:label="Layer 1"
     inkscape:groupmode="layer"
     id="layer1"
     transform="translate(-426.36514,-684.73556)">
    <g
       transform="translate(-118.49155,289.65865)"
       id="g8188">
      <path
         transform="matrix(1.0042307,0,0,1.0058914,373.33097,243.47578)"
         d="m 186,159 c 0,3.86599 -3.13401,7 -7,7 -3.86599,0 -7,-3.13401 -7,-7 0,-3.86599 3.13401,-7 7,-7 3.86599,0 7,3.13401 7,7 z"
         sodipodi:ry="7"
         sodipodi:rx="7"
         sodipodi:cy="159"
         sodipodi:cx="179"
         id="path7913"
         style="color:#000000;fill:none;stroke:#000000;stroke-width:0.94033492;stroke-linecap:round;stroke-linejoin:round;stroke-miterlimit:0;stroke-opacity:0.26512966;stroke-dasharray:none;stroke-dashoffset:0;marker:none;display:inline"
         sodipodi:type="arc" />
      <rect
         y="395.13254"
         x="544.91125"
         height="15.9668"
         width="15.942384"
         id="rect7915"
         style="color:#000000;fill:none;stroke:none;stroke-width:1;marker:none;display:inline" />
      <path
         id="path7917"
         d="m 557.8684,406.08078 -2.02394,2.02698 2.9892,2.99378 2.02394,-2.02699 -2.9892,-2.99377 z"
         style="fill:#000000;fill-opacity:1;fill-rule:evenodd;stroke:none"
         inkscape:connector-curvature="0" />
      <path
         transform="matrix(1.0042307,0,0,1.0058914,372.62811,242.68052)"
         d="m 186,159 c 0,3.86599 -3.13401,7 -7,7 -3.86599,0 -7,-3.13401 -7,-7 0,-3.86599 3.13401,-7 7,-7 3.86599,0 7,3.13401 7,7 z"
         sodipodi:ry="7"
         sodipodi:rx="7"
         sodipodi:cy="159"
         sodipodi:cx="179"
         id="path7919"
         style="color:#000000;fill:url(#radialGradient8182);fill-opacity:1;fill-rule:evenodd;stroke:#000000;stroke-width:0.99317169;stroke-linecap:round;stroke-linejoin:round;stroke-miterlimit:0;stroke-opacity:1;stroke-dasharray:none;stroke-dashoffset:0;marker:none;display:inline"
         sodipodi:type="arc" />
      <path
         inkscape:connector-curvature="0"
         style="fill:none;stroke:#000000;stroke-width:1.00000012px;stroke-linecap:round;stroke-linejoin:miter;stroke-opacity:1"
         d="m 553.39423,400.64058 c 0.4982,-1.5 2.98919,-1.5 2.98919,0.5 0,2 -2.98919,2.5 -2.98919,4.5 l 2.98919,0"
         id="path10692"
         sodipodi:nodetypes="cccc" />
      <path
         inkscape:connector-curvature="0"
         d="m 547.85759,399.57598 1.5,0 0,6.5 m 1.5,-3.5 1,0 m -1,3 1,0"
         style="fill:none;stroke:#000000;stroke-width:1px;stroke-linecap:butt;stroke-linejoin:miter;stroke-opacity:1"
         id="path3806"
         sodipodi:nodetypes="ccccccc" />
    </g>
  </g>
</svg>
